<?xml version="1.0" encoding="UTF-8"?>
<svg width="35px" height="42px" viewBox="0 0 35 42" version="1.1" xmlns="http://www.w3.org/2000/svg" xmlns:xlink="http://www.w3.org/1999/xlink">
    <!-- Generator: Sketch 53.2 (72643) - https://sketchapp.com -->
    <title>bizzy-icon</title>
    <desc>Created with Sketch.</desc>
    <g id="Page-1" stroke="none" stroke-width="1" fill="none" fill-rule="evenodd">
        <g id="Artboard" transform="translate(-23.000000, -17.000000)" fill="#FFFFFF" fill-rule="nonzero">
            <g id="bizzy-icon" transform="translate(23.000000, 17.000000)">
                <path d="M32.7349667,26.1328066 C33.3763,25.7919735 33.7693,24.7588333 33.7979666,24.2819249 C33.8493,23.4454811 33.6336333,22.7709088 33.1089667,22.1292268 C32.1416333,20.944211 30.9179667,19.9088135 29.8729667,18.7811944 C29.5776333,18.462933 29.2836333,18.1433818 28.9903,17.8235081 C26.7943,15.429615 24.9036333,13.928595 22.2683,13.8425 C21.0423,13.8021934 18.9779667,14.0582212 17.2799667,14.3123145 C17.2949666,12.5778383 17.2813,9.0605179 17.1569667,7.37279746 C16.8143,2.72689063 13.1953,0.107925112 9.96396667,0.00216043696 C8.95529999,-0.030407344 8.06763335,0.323323901 7.46530001,0.998863516 C6.69096667,1.86690774 6.70663333,2.87812122 6.76496667,3.33407015 C6.79463333,3.66071532 6.84596667,4.33561003 6.86863333,4.96955317 C6.3393,4.73093775 5.72163333,4.56519676 5.00363333,4.53327388 C3.74996667,4.47716702 2.91063333,4.72352132 2.43496667,5.28555738 C1.77563333,6.06331469 2.05063333,7.13611675 2.27163334,7.99803438 L2.35363333,8.3195203 C2.70663333,9.70768162 3.03463334,11.0516669 3.34363333,12.3617945 C2.75396667,12.2511931 2.03863333,12.2550625 1.21996666,12.5275355 C0.644633333,12.7187503 0.280633333,13.0054113 0.1073,13.4046084 C-0.195366667,14.1030422 0.184966666,14.8733831 0.710966669,15.940381 C0.876966664,16.2763773 1.0613,16.6507456 1.2463,17.0663879 C1.4063,17.4239885 1.59096666,17.8241531 1.7973,18.2717182 C2.9603,20.7865313 4.9053,24.995514 6.7583,31.4578001 L6.77463333,31.4529633 C7.37629998,34.0048585 8.4709667,36.1823855 10.1713,37.9620051 C13.1043,41.0330502 17.0179667,41.9078659 19.4769667,41.9881568 C25.6796333,42.1913023 28.9606333,39.5584713 31.1263,36.9740083 C31.8629667,36.0943558 32.4563,35.1053916 33.0086333,34.1109456 C33.6716333,32.9172236 34.3683,31.6461128 34.6316333,30.3043847 C34.9829667,28.5134792 34.1523,27.2262457 32.7349667,26.1328066 M2.92763333,17.782879 C2.72396666,17.3407956 2.5403,16.9454679 2.38296667,16.5923815 C2.19063333,16.161584 1.99996667,15.7736727 1.82763333,15.4247782 C1.51496667,14.7908351 1.1603,14.0717643 1.24863333,13.8679738 C1.25296667,13.8576553 1.3003,13.7667235 1.6223,13.6593465 C2.4963,13.3694611 3.19196667,13.5058588 3.65363333,13.6967511 C4.5543,17.6361628 5.84896667,22.2436977 6.1393,25.4411444 C5.0593,22.8795755 3.63596667,19.3161444 2.92763333,17.782879 M6.5253,21.4585239 C5.83696667,17.6319709 4.76096666,12.7745348 3.55496667,8.03382664 L3.47263333,7.70943866 C3.3183,7.10709594 3.1263,6.35803699 3.39163334,6.04493485 C3.5943,5.80567452 4.1483,5.69346078 4.94596667,5.7292531 C5.7323,5.7644005 6.3603,6.01397933 6.8583,6.33933469 C6.74663333,9.68865688 6.68896667,17.0699348 6.5253,21.4585239 M31.4883,32.2987582 C30.9439667,33.3644663 30.2693,34.4688688 29.3419666,35.5755284 C27.0729667,38.2847809 24.3046334,39.8999493 19.5546333,39.7448493 C16.6496333,39.6497256 8.06196664,37.4641373 8.5183,24.4218696 L9.15963335,5.97979929 C9.1973,4.90054817 9.04730001,3.08642603 9.04730001,3.08642603 C9.04730001,3.08642603 8.87796665,2.18936101 9.88629999,2.22225125 C11.9679666,2.29061134 14.6106333,4.05733285 14.8663,7.53112199 C15.0073,9.44455974 14.9989666,12.6503902 14.9726333,14.7840636 C13.7349667,15.0075237 12.6913,15.9052336 13.1839667,17.2459944 L15.8203,16.803266 L15.8196333,16.799719 C17.3973,16.5311154 20.6776333,16.0126105 22.1906334,16.0622684 C23.8129667,16.1154732 24.9709666,17.1041149 27.2723,19.2977646 C29.7173,21.6287793 30.5369667,22.4877948 30.9863,22.9263313 C32.2003,24.1110246 31.0863,26.6467972 28.2123,25.6652494 C27.2499667,25.336347 25.8513,24.1332739 25.1586334,23.4557996 C24.5189666,22.8295953 23.8186333,22.3539767 22.9989667,22.0753771 C22.3803,21.8396637 21.7129667,21.6942373 21.0096333,21.6713431 C17.7036334,21.5629988 14.9336333,24.0681384 14.8219667,27.265585 C14.7096333,30.4636766 17.2993,33.1439083 20.6053,33.2519301 C21.4956333,33.2812733 22.3446334,33.1155324 23.1163,32.8027527 C23.5913,32.6328198 24.0416333,32.3916248 24.4496333,32.0740083 C24.5823,31.9705008 24.7136333,31.8573197 24.8416333,31.7399467 C25.0359667,31.5684015 25.2163,31.3839583 25.3863,31.1891965 C25.9909667,30.526555 26.2936333,30.0838266 26.6753,29.4947045 C28.7143,26.347883 31.0086333,27.2372092 31.5726333,27.5996466 C32.2713,28.0494689 33.2566333,28.8343202 31.4883,32.2987582 M26.4719666,26.709998 C26.2039667,26.7664274 25.8496333,27.0953297 25.5773,27.4706653 C25.2986334,27.8550296 25.0919667,28.1223434 24.8189667,28.5102546 C24.1839667,29.4144136 23.3976333,30.4088596 22.3266333,30.8767392 C21.1083,31.4084647 19.5493,31.0908482 18.5396334,30.2963234 C17.6673,29.6098204 17.1216333,28.5586227 17.1013,27.4864655 C17.0803,26.4139859 17.5906333,25.3418287 18.4629667,24.660485 C19.5573,23.8059838 21.2123,23.6157364 22.5096333,24.1600375 C23.6166333,24.6243703 24.3299666,25.3831028 25.2426334,26.0995939 C25.5059666,26.3059641 25.8999667,26.5932699 26.4719666,26.709998" id="Fill-1"></path>
            </g>
        </g>
    </g>
</svg>